{
	"info": {
		"_postman_id": "3c30e4b3-65bc-4f85-8a8f-160ab6363a8b",
		"name": "Snow Man Labs",
		"schema": "https://schema.getpostman.com/json/collection/v2.1.0/collection.json"
	},
	"item": [
		{
			"name": "Authentication",
			"item": [
				{
					"name": "Login",
					"event": [
						{
							"listen": "test",
							"script": {
								"id": "9bd9e877-0138-4c84-a646-f423fceb43bd",
								"exec": [
									"tests[\"Status code is 200\"] = responseCode.code === 200;",
									"",
									"postman.setGlobalVariable(\"snowmantoken\",postman.getResponseHeader(\"Authorization\"));"
								],
								"type": "text/javascript"
							}
						}
					],
					"request": {
						"auth": {
							"type": "noauth"
						},
						"method": "POST",
						"header": [
							{
								"key": "Content-Type",
								"value": "application/json",
								"type": "text"
							}
						],
						"body": {
							"mode": "raw",
							"raw": "{\n    \"username\": \"snowman\",\n    \"password\": \"labs\"\n}",
							"options": {
								"raw": {
									"language": "json"
								}
							}
						},
						"url": {
							"raw": "http://168.138.143.32:8080/login",
							"protocol": "http",
							"host": [
								"168",
								"138",
								"143",
								"32"
							],
							"port": "8080",
							"path": [
								"login"
							]
						}
					},
					"response": []
				}
			],
			"protocolProfileBehavior": {}
		},
		{
			"name": "category",
			"item": [
				{
					"name": "List",
					"request": {
						"method": "GET",
						"header": [
							{
								"key": "Authorization",
								"value": "{{snowmantoken}}",
								"type": "text"
							}
						],
						"url": {
							"raw": "http://168.138.143.32:8080/category",
							"protocol": "http",
							"host": [
								"168",
								"138",
								"143",
								"32"
							],
							"port": "8080",
							"path": [
								"category"
							]
						}
					},
					"response": []
				},
				{
					"name": "get Category by ID",
					"request": {
						"auth": {
							"type": "noauth"
						},
						"method": "GET",
						"header": [
							{
								"key": "Authorization",
								"value": "{{snowmantoken}}",
								"type": "text"
							}
						],
						"url": {
							"raw": "http://168.138.143.32:8080/category/5b41c531-952a-4bd7-974e-e85f56077d65",
							"protocol": "http",
							"host": [
								"168",
								"138",
								"143",
								"32"
							],
							"port": "8080",
							"path": [
								"category",
								"5b41c531-952a-4bd7-974e-e85f56077d65"
							]
						}
					},
					"response": []
				},
				{
					"name": "update Category",
					"request": {
						"auth": {
							"type": "noauth"
						},
						"method": "PUT",
						"header": [
							{
								"key": "Authorization",
								"value": "{{snowmantoken}}",
								"type": "text"
							}
						],
						"body": {
							"mode": "raw",
							"raw": "{\n    \"name\": \"Park\"\n}",
							"options": {
								"raw": {
									"language": "json"
								}
							}
						},
						"url": {
							"raw": "http://168.138.143.32:8080/category/739fa4d4-db9a-4ed7-bfbf-8f626a53e943?",
							"protocol": "http",
							"host": [
								"168",
								"138",
								"143",
								"32"
							],
							"port": "8080",
							"path": [
								"category",
								"739fa4d4-db9a-4ed7-bfbf-8f626a53e943"
							],
							"query": [
								{
									"key": "",
									"value": null
								}
							]
						}
					},
					"response": []
				},
				{
					"name": "new Category",
					"request": {
						"auth": {
							"type": "noauth"
						},
						"method": "POST",
						"header": [
							{
								"key": "Authorization",
								"value": "{{snowmantoken}}",
								"type": "text"
							}
						],
						"body": {
							"mode": "raw",
							"raw": "{\n    \"name\": \"test2\"\n}",
							"options": {
								"raw": {
									"language": "json"
								}
							}
						},
						"url": {
							"raw": "http://localhost:8080/category",
							"protocol": "http",
							"host": [
								"localhost"
							],
							"port": "8080",
							"path": [
								"category"
							]
						}
					},
					"response": []
				},
				{
					"name": "Delete Category",
					"request": {
						"auth": {
							"type": "noauth"
						},
						"method": "DELETE",
						"header": [
							{
								"key": "Authorization",
								"value": "{{snowmantoken}}",
								"type": "text"
							}
						],
						"body": {
							"mode": "raw",
							"raw": "{\n\n    \"name\": \"test2\"\n}",
							"options": {
								"raw": {
									"language": "json"
								}
							}
						},
						"url": {
							"raw": "http://localhost:8080/category/00c35c79-5e05-4e91-be9b-05f2c0de8ec3",
							"protocol": "http",
							"host": [
								"localhost"
							],
							"port": "8080",
							"path": [
								"category",
								"00c35c79-5e05-4e91-be9b-05f2c0de8ec3"
							]
						}
					},
					"response": []
				}
			],
			"protocolProfileBehavior": {}
		},
		{
			"name": "Tourist Spots",
			"item": [
				{
					"name": "List Tourist Spots",
					"request": {
						"auth": {
							"type": "noauth"
						},
						"method": "GET",
						"header": [
							{
								"key": "Authorization",
								"value": "{{snowmantoken}}",
								"type": "text"
							}
						],
						"url": {
							"raw": "http://localhost:8080/tourist-spots",
							"protocol": "http",
							"host": [
								"localhost"
							],
							"port": "8080",
							"path": [
								"tourist-spots"
							]
						}
					},
					"response": []
				},
				{
					"name": "Get Tourist Spots By ID",
					"request": {
						"auth": {
							"type": "noauth"
						},
						"method": "GET",
						"header": [
							{
								"key": "Authorization",
								"value": "{{snowmantoken}}",
								"type": "text"
							}
						],
						"url": {
							"raw": "http://localhost:8080/tourist-spots/02cfd113-963e-4999-991f-00eb2418c931",
							"protocol": "http",
							"host": [
								"localhost"
							],
							"port": "8080",
							"path": [
								"tourist-spots",
								"02cfd113-963e-4999-991f-00eb2418c931"
							]
						}
					},
					"response": []
				},
				{
					"name": "Get Tourist Spots By Name",
					"request": {
						"auth": {
							"type": "noauth"
						},
						"method": "GET",
						"header": [
							{
								"key": "Authorization",
								"value": "{{snowmantoken}}",
								"type": "text"
							}
						],
						"url": {
							"raw": "http://168.138.143.32:8080/tourist-spots/search/findAllByNameIgnoreCaseContaining?name=spo",
							"protocol": "http",
							"host": [
								"168",
								"138",
								"143",
								"32"
							],
							"port": "8080",
							"path": [
								"tourist-spots",
								"search",
								"findAllByNameIgnoreCaseContaining"
							],
							"query": [
								{
									"key": "name",
									"value": "spo"
								}
							]
						}
					},
					"response": []
				},
				{
					"name": "Get Tourist Spots By Radius",
					"request": {
						"auth": {
							"type": "noauth"
						},
						"method": "GET",
						"header": [
							{
								"key": "Authorization",
								"type": "text",
								"value": "{{snowmantoken}}"
							}
						],
						"url": {
							"raw": "http://localhost:8080/tourist-spots/search/findByLocationWithin",
							"protocol": "http",
							"host": [
								"localhost"
							],
							"port": "8080",
							"path": [
								"tourist-spots",
								"search",
								"findByLocationWithin"
							]
						}
					},
					"response": []
				},
				{
					"name": "new Tourist Spots",
					"request": {
						"auth": {
							"type": "noauth"
						},
						"method": "POST",
						"header": [
							{
								"key": "Authorization",
								"value": "{{snowmantoken}}",
								"type": "text"
							}
						],
						"body": {
							"mode": "raw",
							"raw": "{\n    \"name\": \"new test spot \",\n    \"location\": {\n        \"x\": 234,\n        \"y\": 233\n    }\n}",
							"options": {
								"raw": {
									"language": "json"
								}
							}
						},
						"url": {
							"raw": "http://localhost:8080/tourist-spots",
							"protocol": "http",
							"host": [
								"localhost"
							],
							"port": "8080",
							"path": [
								"tourist-spots"
							]
						}
					},
					"response": []
				},
				{
					"name": "update Tourist Spots",
					"request": {
						"auth": {
							"type": "noauth"
						},
						"method": "PUT",
						"header": [
							{
								"key": "Authorization",
								"value": "{{snowmantoken}}",
								"type": "text"
							}
						],
						"body": {
							"mode": "raw",
							"raw": " {\n        \"uuid\": \"225377f9-92c3-4acf-97ea-a559a2a48ebc\",\n        \"name\": \"Spots test \"\n      }",
							"options": {
								"raw": {
									"language": "json"
								}
							}
						},
						"url": {
							"raw": "http://localhost:8080/tourist-spots/225377f9-92c3-4acf-97ea-a559a2a48ebc",
							"protocol": "http",
							"host": [
								"localhost"
							],
							"port": "8080",
							"path": [
								"tourist-spots",
								"225377f9-92c3-4acf-97ea-a559a2a48ebc"
							]
						}
					},
					"response": []
				},
				{
					"name": "Delete Tourist Spots",
					"request": {
						"auth": {
							"type": "noauth"
						},
						"method": "DELETE",
						"header": [
							{
								"key": "Authorization",
								"value": "{{snowmantoken}}",
								"type": "text"
							}
						],
						"url": {
							"raw": "http://localhost:8080/tourist-spots/225377f9-92c3-4acf-97ea-a559a2a48ebc",
							"protocol": "http",
							"host": [
								"localhost"
							],
							"port": "8080",
							"path": [
								"tourist-spots",
								"225377f9-92c3-4acf-97ea-a559a2a48ebc"
							]
						}
					},
					"response": []
				},
				{
					"name": "Searchs",
					"request": {
						"method": "GET",
						"header": [
							{
								"key": "Authorization",
								"value": "{{snowmantoken}}",
								"type": "text"
							}
						],
						"url": {
							"raw": "http://localhost:8080/tourist-spots/search",
							"protocol": "http",
							"host": [
								"localhost"
							],
							"port": "8080",
							"path": [
								"tourist-spots",
								"search"
							]
						}
					},
					"response": []
				}
			],
			"protocolProfileBehavior": {}
		},
		{
			"name": "Tourist Spots Picture",
			"item": [
				{
					"name": "List Pictures",
					"request": {
						"method": "GET",
						"header": [
							{
								"key": "Authorization",
								"value": "{{snowmantoken}}",
								"type": "text"
							}
						],
						"url": {
							"raw": "http://localhost:8080/tourist-spots-picture",
							"protocol": "http",
							"host": [
								"localhost"
							],
							"port": "8080",
							"path": [
								"tourist-spots-picture"
							]
						}
					},
					"response": []
				}
			],
			"protocolProfileBehavior": {}
		},
		{
			"name": "Tourist Spots Comment",
			"item": [
				{
					"name": "Tourist Spots Comment",
					"request": {
						"auth": {
							"type": "noauth"
						},
						"method": "GET",
						"header": [
							{
								"key": "Authorization",
								"value": "{{snowmantoken}}",
								"type": "text"
							}
						],
						"url": {
							"raw": "http://localhost:8080/tourist-spots-comment",
							"protocol": "http",
							"host": [
								"localhost"
							],
							"port": "8080",
							"path": [
								"tourist-spots-comment"
							]
						}
					},
					"response": []
				}
			],
			"protocolProfileBehavior": {}
		}
	],
	"protocolProfileBehavior": {}
}